%YAML 1.1
%TAG !u! tag:unity3d.com,2011:
--- !u!114 &11400000
MonoBehaviour:
  m_ObjectHideFlags: 0
  m_CorrespondingSourceObject: {fileID: 0}
  m_PrefabInstance: {fileID: 0}
  m_PrefabAsset: {fileID: 0}
  m_GameObject: {fileID: 0}
  m_Enabled: 1
  m_EditorHideFlags: 0
  m_Script: {fileID: 11500000, guid: 202af7f866fabdf448156d1dc4fdf002, type: 3}
  m_Name: Numbering
  m_EditorClassIdentifier: 
  _chanse: 0.1
  _names:
  - 
  - ' I'
  - ' II'
  - ' III'
  - ' IV'
  - ' V'
  - ' VI'
  - ' VII'
  - ' VIII'
  - ' IX'
  - ' X'
  - ' - The Infinite'
