%YAML 1.1
%TAG !u! tag:unity3d.com,2011:
--- !u!1 &7424186698754347246
GameObject:
  m_ObjectHideFlags: 0
  m_CorrespondingSourceObject: {fileID: 0}
  m_PrefabInstance: {fileID: 0}
  m_PrefabAsset: {fileID: 0}
  serializedVersion: 6
  m_Component:
  - component: {fileID: 7424186698754347240}
  - component: {fileID: 7424186698754347247}
  m_Layer: 0
  m_Name: WindowDistribution
  m_TagString: Untagged
  m_Icon: {fileID: 0}
  m_NavMeshLayer: 0
  m_StaticEditorFlags: 0
  m_IsActive: 1
--- !u!4 &7424186698754347240
Transform:
  m_ObjectHideFlags: 0
  m_CorrespondingSourceObject: {fileID: 0}
  m_PrefabInstance: {fileID: 0}
  m_PrefabAsset: {fileID: 0}
  m_GameObject: {fileID: 7424186698754347246}
  m_LocalRotation: {x: 0, y: 0, z: 0, w: 1}
  m_LocalPosition: {x: 2.1806173, y: 0.53783035, z: 197.0778}
  m_LocalScale: {x: 1, y: 1, z: 1}
  m_Children: []
  m_Father: {fileID: 0}
  m_RootOrder: 0
  m_LocalEulerAnglesHint: {x: 0, y: 0, z: 0}
--- !u!114 &7424186698754347247
MonoBehaviour:
  m_ObjectHideFlags: 0
  m_CorrespondingSourceObject: {fileID: 0}
  m_PrefabInstance: {fileID: 0}
  m_PrefabAsset: {fileID: 0}
  m_GameObject: {fileID: 7424186698754347246}
  m_Enabled: 1
  m_EditorHideFlags: 0
  m_Script: {fileID: 11500000, guid: fecd726f4bfc38a4eaec99db34021105, type: 3}
  m_Name: 
  m_EditorClassIdentifier: 
  windowHUDModuleTypeConstructors:
  - {fileID: 11400000, guid: 4e892b582d05a4547af8a9016d57a233, type: 2}
  - {fileID: 11400000, guid: abddc4278f9f46c49a631e635a0c6548, type: 2}
