%YAML 1.1
%TAG !u! tag:unity3d.com,2011:
--- !u!114 &11400000
MonoBehaviour:
  m_ObjectHideFlags: 0
  m_CorrespondingSourceObject: {fileID: 0}
  m_PrefabInstance: {fileID: 0}
  m_PrefabAsset: {fileID: 0}
  m_GameObject: {fileID: 0}
  m_Enabled: 1
  m_EditorHideFlags: 0
  m_Script: {fileID: 11500000, guid: 6c6ddad006705ca49be3617531db4544, type: 3}
  m_Name: EasingCombinator
  m_EditorClassIdentifier: 
  oparation: {fileID: 11400000, guid: 58cd93a532e2ae34faa67f3c3d05cb70, type: 2}
