%YAML 1.1
%TAG !u! tag:unity3d.com,2011:
--- !u!1001 &3538959111190560450
PrefabInstance:
  m_ObjectHideFlags: 0
  serializedVersion: 2
  m_Modification:
    m_TransformParent: {fileID: 0}
    m_Modifications:
    - target: {fileID: 724109354369431933, guid: 823dd0a17bf4a834197b7695e0797909,
        type: 3}
      propertyPath: m_Color.b
      value: 0
      objectReference: {fileID: 0}
    - target: {fileID: 724109354369431933, guid: 823dd0a17bf4a834197b7695e0797909,
        type: 3}
      propertyPath: m_Color.g
      value: 0
      objectReference: {fileID: 0}
    - target: {fileID: 724109354369431933, guid: 823dd0a17bf4a834197b7695e0797909,
        type: 3}
      propertyPath: m_Color.r
      value: 1
      objectReference: {fileID: 0}
    - target: {fileID: 969482813788757818, guid: 823dd0a17bf4a834197b7695e0797909,
        type: 3}
      propertyPath: m_Name
      value: HealthSpaceBar
      objectReference: {fileID: 0}
    - target: {fileID: 2599504215406461143, guid: 823dd0a17bf4a834197b7695e0797909,
        type: 3}
      propertyPath: m_PresetInfoIsWorld
      value: 1
      objectReference: {fileID: 0}
    - target: {fileID: 3908591920119626235, guid: 823dd0a17bf4a834197b7695e0797909,
        type: 3}
      propertyPath: m_Pivot.x
      value: 0.5
      objectReference: {fileID: 0}
    - target: {fileID: 3908591920119626235, guid: 823dd0a17bf4a834197b7695e0797909,
        type: 3}
      propertyPath: m_Pivot.y
      value: 0.5
      objectReference: {fileID: 0}
    - target: {fileID: 3908591920119626235, guid: 823dd0a17bf4a834197b7695e0797909,
        type: 3}
      propertyPath: m_RootOrder
      value: 0
      objectReference: {fileID: 0}
    - target: {fileID: 3908591920119626235, guid: 823dd0a17bf4a834197b7695e0797909,
        type: 3}
      propertyPath: m_AnchorMax.x
      value: 0
      objectReference: {fileID: 0}
    - target: {fileID: 3908591920119626235, guid: 823dd0a17bf4a834197b7695e0797909,
        type: 3}
      propertyPath: m_AnchorMax.y
      value: 0
      objectReference: {fileID: 0}
    - target: {fileID: 3908591920119626235, guid: 823dd0a17bf4a834197b7695e0797909,
        type: 3}
      propertyPath: m_AnchorMin.x
      value: 0
      objectReference: {fileID: 0}
    - target: {fileID: 3908591920119626235, guid: 823dd0a17bf4a834197b7695e0797909,
        type: 3}
      propertyPath: m_AnchorMin.y
      value: 0
      objectReference: {fileID: 0}
    - target: {fileID: 3908591920119626235, guid: 823dd0a17bf4a834197b7695e0797909,
        type: 3}
      propertyPath: m_SizeDelta.x
      value: 1
      objectReference: {fileID: 0}
    - target: {fileID: 3908591920119626235, guid: 823dd0a17bf4a834197b7695e0797909,
        type: 3}
      propertyPath: m_SizeDelta.y
      value: 0.2
      objectReference: {fileID: 0}
    - target: {fileID: 3908591920119626235, guid: 823dd0a17bf4a834197b7695e0797909,
        type: 3}
      propertyPath: m_LocalPosition.x
      value: 0
      objectReference: {fileID: 0}
    - target: {fileID: 3908591920119626235, guid: 823dd0a17bf4a834197b7695e0797909,
        type: 3}
      propertyPath: m_LocalPosition.y
      value: 0
      objectReference: {fileID: 0}
    - target: {fileID: 3908591920119626235, guid: 823dd0a17bf4a834197b7695e0797909,
        type: 3}
      propertyPath: m_LocalPosition.z
      value: 0
      objectReference: {fileID: 0}
    - target: {fileID: 3908591920119626235, guid: 823dd0a17bf4a834197b7695e0797909,
        type: 3}
      propertyPath: m_LocalRotation.w
      value: 1
      objectReference: {fileID: 0}
    - target: {fileID: 3908591920119626235, guid: 823dd0a17bf4a834197b7695e0797909,
        type: 3}
      propertyPath: m_LocalRotation.x
      value: 0
      objectReference: {fileID: 0}
    - target: {fileID: 3908591920119626235, guid: 823dd0a17bf4a834197b7695e0797909,
        type: 3}
      propertyPath: m_LocalRotation.y
      value: 0
      objectReference: {fileID: 0}
    - target: {fileID: 3908591920119626235, guid: 823dd0a17bf4a834197b7695e0797909,
        type: 3}
      propertyPath: m_LocalRotation.z
      value: 0
      objectReference: {fileID: 0}
    - target: {fileID: 3908591920119626235, guid: 823dd0a17bf4a834197b7695e0797909,
        type: 3}
      propertyPath: m_AnchoredPosition.x
      value: 0.2659912
      objectReference: {fileID: 0}
    - target: {fileID: 3908591920119626235, guid: 823dd0a17bf4a834197b7695e0797909,
        type: 3}
      propertyPath: m_AnchoredPosition.y
      value: 0.5159912
      objectReference: {fileID: 0}
    - target: {fileID: 3908591920119626235, guid: 823dd0a17bf4a834197b7695e0797909,
        type: 3}
      propertyPath: m_LocalEulerAnglesHint.x
      value: 0
      objectReference: {fileID: 0}
    - target: {fileID: 3908591920119626235, guid: 823dd0a17bf4a834197b7695e0797909,
        type: 3}
      propertyPath: m_LocalEulerAnglesHint.y
      value: 0
      objectReference: {fileID: 0}
    - target: {fileID: 3908591920119626235, guid: 823dd0a17bf4a834197b7695e0797909,
        type: 3}
      propertyPath: m_LocalEulerAnglesHint.z
      value: 0
      objectReference: {fileID: 0}
    m_RemovedComponents: []
  m_SourcePrefab: {fileID: 100100000, guid: 823dd0a17bf4a834197b7695e0797909, type: 3}
