%YAML 1.1
%TAG !u! tag:unity3d.com,2011:
--- !u!114 &11400000
MonoBehaviour:
  m_ObjectHideFlags: 0
  m_CorrespondingSourceObject: {fileID: 0}
  m_PrefabInstance: {fileID: 0}
  m_PrefabAsset: {fileID: 0}
  m_GameObject: {fileID: 0}
  m_Enabled: 1
  m_EditorHideFlags: 0
  m_Script: {fileID: 11500000, guid: c9358de20f7bf5f4493ee6e74a32a71d, type: 3}
  m_Name: NoiseValueTileData
  m_EditorClassIdentifier: 
  tiles:
    _brokerMarket:
    - weight: 1
      obj: {fileID: 8614305415888989359, guid: 0807d49156610384ca6d8f036a197a75, type: 3}
